Figure S2
…
#Modify the plot theme
theme_set(theme_notebook())

Fig. S2A - EtBr binding

Let’s read in the EtBr data and take a look:

etbr_data <- read_csv("../../../../data/Spectroscopy/phz_etbr_competitive_binding.csv") %>% 
  gather(key = 'rep', value = 'fluor', -phz_conc, -phz_mol)

etbr_data %>% group_by(phz_mol, phz_conc) %>% summarise(mean_fluor = mean(fluor)) 

## # A tibble: 30 x 3
## # Groups:   phz_mol [3]
##    phz_mol phz_conc mean_fluor
##    <chr>      <dbl>      <dbl>
##  1 PCA          0        1117.
##  2 PCA          0.1       840.
##  3 PCA          1         833.
##  4 PCA          5         808.
##  5 PCA         10         733.
##  6 PCA         50         874.
##  7 PCA        100         665.
##  8 PCA        500         986.
##  9 PCA        750        1173.
## 10 PCA       1000        1310.
## # … with 20 more rows
…
